{"page":1,"per_page":3,"total":9,"total_pages":2,"data":[
  {
    "id": 1,
    "title": "Kebakaran Lahan",
    "isi_berita": "klskdsalkdlkasdlkasdlkashdlksadhaslkdhaslkd"
  },
  {
    "id": 2,
    "title": "Kebakaran Lahan",
    "isi_berita": "klskdsalkdlkasdlkasdlkashdlksadhaslkdhaslkd"
  },
  {
    "id": 3,
    "title": "Pesawat Jatuh",
    "isi_berita": "klskdsalkdlkasdlkasdlkashdlksadhaslkdhaslkd"
  }
]
}
